^D:\OPENGL NELZKIE\GETTING STARTED\HELLO TRIANGLE\WIN32PROJECT2\DEBUG\HELLOTRIANGLE.OBJ
D:\OPENGL NELZKIE\GETTING STARTED\HELLO TRIANGLE\DEBUG\HELLOTRIANGLE.ILK
D:\OPENGL NELZKIE\GETTING STARTED\HELLO TRIANGLE\DEBUG\HELLOTRIANGLE.EXE
D:\OPENGL NELZKIE\GETTING STARTED\HELLO TRIANGLE\DEBUG\HELLOTRIANGLE.PDB
^D:\OPENGL NELZKIE\GETTING STARTED\HELLO TRIANGLE - PART_2_USING INDICES\WIN32PROJECT2\DEBUG\HELLOTRIANGLE.OBJ
D:\OPENGL NELZKIE\GETTING STARTED\HELLO TRIANGLE - PART_2_USING INDICES\DEBUG\HELLOTRIANGLE.ILK
D:\OPENGL NELZKIE\GETTING STARTED\HELLO TRIANGLE - PART_2_USING INDICES\DEBUG\HELLOTRIANGLE.EXE
D:\OPENGL NELZKIE\GETTING STARTED\HELLO TRIANGLE - PART_2_USING INDICES\DEBUG\HELLOTRIANGLE.PDB
^D:\OPENGL NELZKIE\GETTING STARTED\SHADERS - PART_2_MORE_ATTRIBUTES\WIN32PROJECT2\DEBUG\HELLOTRIANGLE.OBJ
D:\OPENGL NELZKIE\GETTING STARTED\SHADERS - PART_2_MORE_ATTRIBUTES\DEBUG\HELLOTRIANGLE.ILK
D:\OPENGL NELZKIE\GETTING STARTED\SHADERS - PART_2_MORE_ATTRIBUTES\DEBUG\HELLOTRIANGLE.EXE
D:\OPENGL NELZKIE\GETTING STARTED\SHADERS - PART_2_MORE_ATTRIBUTES\DEBUG\HELLOTRIANGLE.PDB
^D:\OPENGL NELZKIE\GETTING STARTED\SHADERS - PART_3_TEXTURE_MORE_TEXTURES\WIN32PROJECT2\DEBUG\HELLOTRIANGLE.OBJ
D:\OPENGL NELZKIE\GETTING STARTED\SHADERS - PART_3_TEXTURE_MORE_TEXTURES\DEBUG\HELLOTRIANGLE.ILK
D:\OPENGL NELZKIE\GETTING STARTED\SHADERS - PART_3_TEXTURE_MORE_TEXTURES\DEBUG\HELLOTRIANGLE.EXE
D:\OPENGL NELZKIE\GETTING STARTED\SHADERS - PART_3_TEXTURE_MORE_TEXTURES\DEBUG\HELLOTRIANGLE.PDB
^D:\OPENGL NELZKIE\GETTING STARTED\OPENGL- PART_5_COORDINATE_SYSTEM\WIN32PROJECT2\DEBUG\HELLOTRIANGLE.OBJ
D:\OPENGL NELZKIE\GETTING STARTED\OPENGL- PART_5_COORDINATE_SYSTEM\DEBUG\HELLOTRIANGLE.ILK
D:\OPENGL NELZKIE\GETTING STARTED\OPENGL- PART_5_COORDINATE_SYSTEM\DEBUG\HELLOTRIANGLE.EXE
D:\OPENGL NELZKIE\GETTING STARTED\OPENGL- PART_5_COORDINATE_SYSTEM\DEBUG\HELLOTRIANGLE.PDB
^D:\OPENGL NELZKIE\GETTING STARTED\OPENGL- PART_5_COORDINATE_SYSTEM - PART2\WIN32PROJECT2\DEBUG\HELLOTRIANGLE.OBJ
D:\OPENGL NELZKIE\GETTING STARTED\OPENGL- PART_5_COORDINATE_SYSTEM - PART2\DEBUG\HELLOTRIANGLE.ILK
D:\OPENGL NELZKIE\GETTING STARTED\OPENGL- PART_5_COORDINATE_SYSTEM - PART2\DEBUG\HELLOTRIANGLE.EXE
D:\OPENGL NELZKIE\GETTING STARTED\OPENGL- PART_5_COORDINATE_SYSTEM - PART2\DEBUG\HELLOTRIANGLE.PDB
^D:\OPENGL NELZKIE\GETTING STARTED\OPENGL- PART_5_COORDINATE_SYSTEM - PART3- MORE CUBES\WIN32PROJECT2\DEBUG\HELLOTRIANGLE.OBJ
D:\OPENGL NELZKIE\GETTING STARTED\OPENGL- PART_5_COORDINATE_SYSTEM - PART3- MORE CUBES\DEBUG\HELLOTRIANGLE.ILK
D:\OPENGL NELZKIE\GETTING STARTED\OPENGL- PART_5_COORDINATE_SYSTEM - PART3- MORE CUBES\DEBUG\HELLOTRIANGLE.EXE
D:\OPENGL NELZKIE\GETTING STARTED\OPENGL- PART_5_COORDINATE_SYSTEM - PART3- MORE CUBES\DEBUG\HELLOTRIANGLE.PDB
^D:\OPENGL NELZKIE\GETTING STARTED\OPENGL- PART_6_CAMERA_SYSTEM\WIN32PROJECT2\DEBUG\HELLOTRIANGLE.OBJ
D:\OPENGL NELZKIE\GETTING STARTED\OPENGL- PART_6_CAMERA_SYSTEM\DEBUG\HELLOTRIANGLE.ILK
D:\OPENGL NELZKIE\GETTING STARTED\OPENGL- PART_6_CAMERA_SYSTEM\DEBUG\HELLOTRIANGLE.EXE
D:\OPENGL NELZKIE\GETTING STARTED\OPENGL- PART_6_CAMERA_SYSTEM\DEBUG\HELLOTRIANGLE.PDB
^D:\OPENGL NELZKIE\GETTING STARTED\OPENGL- PART_6_CAMERA_SYSTEM -PART_2_WALKING AROUND\WIN32PROJECT2\DEBUG\HELLOTRIANGLE.OBJ
D:\OPENGL NELZKIE\GETTING STARTED\OPENGL- PART_6_CAMERA_SYSTEM -PART_2_WALKING AROUND\DEBUG\HELLOTRIANGLE.ILK
D:\OPENGL NELZKIE\GETTING STARTED\OPENGL- PART_6_CAMERA_SYSTEM -PART_2_WALKING AROUND\DEBUG\HELLOTRIANGLE.EXE
D:\OPENGL NELZKIE\GETTING STARTED\OPENGL- PART_6_CAMERA_SYSTEM -PART_2_WALKING AROUND\DEBUG\HELLOTRIANGLE.PDB
^D:\OPENGL NELZKIE\GETTING STARTED\OPENGL- PART_6_CAMERA_SYSTEM -PART_3_LOOKING_AROUND\WIN32PROJECT2\DEBUG\HELLOTRIANGLE.OBJ
D:\OPENGL NELZKIE\GETTING STARTED\OPENGL- PART_6_CAMERA_SYSTEM -PART_3_LOOKING_AROUND\DEBUG\HELLOTRIANGLE.ILK
D:\OPENGL NELZKIE\GETTING STARTED\OPENGL- PART_6_CAMERA_SYSTEM -PART_3_LOOKING_AROUND\DEBUG\HELLOTRIANGLE.EXE
D:\OPENGL NELZKIE\GETTING STARTED\OPENGL- PART_6_CAMERA_SYSTEM -PART_3_LOOKING_AROUND\DEBUG\HELLOTRIANGLE.PDB
^D:\OPENGL NELZKIE\GETTING STARTED\OPENGL- PART_6_CAMERA_SYSTEM -PART_4_ZOOMING_AROUND\WIN32PROJECT2\DEBUG\HELLOTRIANGLE.OBJ
D:\OPENGL NELZKIE\GETTING STARTED\OPENGL- PART_6_CAMERA_SYSTEM -PART_4_ZOOMING_AROUND\DEBUG\HELLOTRIANGLE.ILK
D:\OPENGL NELZKIE\GETTING STARTED\OPENGL- PART_6_CAMERA_SYSTEM -PART_4_ZOOMING_AROUND\DEBUG\HELLOTRIANGLE.EXE
D:\OPENGL NELZKIE\GETTING STARTED\OPENGL- PART_6_CAMERA_SYSTEM -PART_4_ZOOMING_AROUND\DEBUG\HELLOTRIANGLE.PDB
^D:\OPENGL NELZKIE\GETTING STARTED\OPENGL- PART_6_CAMERA_SYSTEM -PART_4_ZOOMING_AROUND_OOP\WIN32PROJECT2\DEBUG\HELLOTRIANGLE.OBJ
D:\OPENGL NELZKIE\GETTING STARTED\OPENGL- PART_6_CAMERA_SYSTEM -PART_4_ZOOMING_AROUND_OOP\DEBUG\HELLOTRIANGLE.ILK
D:\OPENGL NELZKIE\GETTING STARTED\OPENGL- PART_6_CAMERA_SYSTEM -PART_4_ZOOMING_AROUND_OOP\DEBUG\HELLOTRIANGLE.EXE
D:\OPENGL NELZKIE\GETTING STARTED\OPENGL- PART_6_CAMERA_SYSTEM -PART_4_ZOOMING_AROUND_OOP\DEBUG\HELLOTRIANGLE.PDB
^D:\OPENGL NELZKIE\GETTING STARTED\OPENGL- PART_6_CAMERA_SYSTEM -PART_4_ZOOMING_AROUND_OOP_2\WIN32PROJECT2\DEBUG\HELLOTRIANGLE.OBJ
D:\OPENGL NELZKIE\GETTING STARTED\OPENGL- PART_6_CAMERA_SYSTEM -PART_4_ZOOMING_AROUND_OOP_2\DEBUG\HELLOTRIANGLE.ILK
D:\OPENGL NELZKIE\GETTING STARTED\OPENGL- PART_6_CAMERA_SYSTEM -PART_4_ZOOMING_AROUND_OOP_2\DEBUG\HELLOTRIANGLE.EXE
D:\OPENGL NELZKIE\GETTING STARTED\OPENGL- PART_6_CAMERA_SYSTEM -PART_4_ZOOMING_AROUND_OOP_2\DEBUG\HELLOTRIANGLE.PDB
^D:\OPENGL NELZKIE\GETTING STARTED\OPENGL- PART_7_LIGHTING - PART 1_COLORS\WIN32PROJECT2\DEBUG\HELLOTRIANGLE.OBJ
D:\OPENGL NELZKIE\GETTING STARTED\OPENGL- PART_7_LIGHTING - PART 1_COLORS\DEBUG\HELLOTRIANGLE.ILK
D:\OPENGL NELZKIE\GETTING STARTED\OPENGL- PART_7_LIGHTING - PART 1_COLORS\DEBUG\HELLOTRIANGLE.EXE
D:\OPENGL NELZKIE\GETTING STARTED\OPENGL- PART_7_LIGHTING - PART 1_COLORS\DEBUG\HELLOTRIANGLE.PDB
